{
    "simType": "parameters",
    "numTrials": 1000,
    "numStudents": 534,
    "rewardFile": "/disk2/contextualBanditSimsNoEffect/ExperimentData/complete/Parameters/lambda_1/ASSISTments_255116_C1_N1k/CompareBanditRewardFile_NNUMSTUDENTS_TNUMTRIALS",
    "outfilePrefix": "/disk2/contextualBanditSimsNoEffect/ExperimentData/complete/Parameters/lambda_1/ASSISTments_255116_C1_N1k/CompareBanditActionsOut_TYPE_NNUMSTUDENTS_TNUMTRIALS",
    "conditionsToActionsFile": "/disk2/contextualBanditSimsNoEffect/ExperimentData/complete/Parameters/lambda_1/ASSISTments_255116_C1_N1k/CompareBanditConditionsToActions_NNUMSTUDENTS",
    "source": "/disk2/contextualBanditSimsNoEffect/ExperimentData/ASSISTmentsData.csv",
    "rewardScheme": "complete",
    "experimentId": 255116,
    "contextHeaders": [
        "Prior Percent Correct"
    ],
    "qcutBehavior": {
        "Prior Percent Correct": 4
    },
    "lambda": 1,
    "lambdaString": "1"
}