{
  "numTrials":1000,
"numStudents":1000,
"contextualStructure":[2],
  "contextualGenerationProcess":{"0": [0.8, 0.2]},
"conditions": [[[0.405465, -0.405465],
                [0, 0.405465]]],
"rewardFile": "/disk2/contextualBanditSimsNoEffect/ESP/CO_82_5/CompareBanditRewardFile_NNUMSTUDENTS_TNUMTRIALS",
"outfilePrefix":"/disk2/contextualBanditSimsNoEffect/ESP/CO_82_5/CompareBanditActionsOut_TYPE_NNUMSTUDENTS_TNUMTRIALS",
  "conditionsToActionsFile": "/disk2/contextualBanditSimsNoEffect/ESP/CO_82_5/CompareBanditConditionsToActions_NNUMSTUDENTS",
  "comment": "1 experiment, 2 conditions, 2 dummy variables (Intercept, 1 binary)"
}