{
    "simType": "parameters",
    "numStudents": 1000,
    "numTrials": 1000,
    "rewardFile": "/disk2/contextualBanditSimsNoEffect/ExperimentData/ProblemCount/Parameters/lambda_1M/ASSISTments_250476_C1_N1k/CompareBanditRewardFile_NNUMSTUDENTS_TNUMTRIALSlambda1M",
    "outfilePrefix": "/disk2/contextualBanditSimsNoEffect/ExperimentData/ProblemCount/Parameters/lambda_1M/ASSISTments_250476_C1_N1k/CompareBanditActionsOut_TYPE_NNUMSTUDENTS_TNUMTRIALSlambda1M",
    "conditionsToActionsFile": "/disk2/contextualBanditSimsNoEffect/ExperimentData/ProblemCount/Parameters/lambda_1M/ASSISTments_250476_C1_N1k/CompareBanditConditionsToActions_NNUMSTUDENTSlambda1M",
    "source": "/disk2/contextualBanditSimsNoEffect/ExperimentData/ASSISTmentsData.csv",
    "rewardScheme": "ProblemCount",
    "experimentId": 250476,
    "contextHeaders": [
        "Prior Percent Correct"
    ],
    "qcutBehavior": {
        "Prior Percent Correct": 4
    },
    "replacement": true
}