{
    "conditions": [
        [
            [
                -0.4054651081081643,
                0,
                0.8109302162163285,
                0,
                0,
                0,
                0,
                0,
                0,
                0,
                0
            ],
            [
                0.4054651081081642,
                0,
                -0.8109302162163285,
                0,
                0,
                0,
                0,
                0,
                0,
                0,
                0
            ]
        ]
    ],
    "conditionsToActionsFile": "/disk2/contextualBanditSimsNoEffect/win20reg_zhihan/C5_G50_Crossover_L2_IL1/CompareBanditConditionsToActions_NNUMSTUDENTS_TNUMTRIALS",
    "contextualGenerationProcess": {
        "0": [
            0.5,
            0.5
        ]
    },
    "contextualStructure": [
        2,
        2,
        2,
        2,
        2
    ],
    "fileName": "C5_G50_Crossover_L2_IL1.json",
    "intercept_lambda": 1,
    "lambda": 2,
    "numStudents": 1000,
    "numTrials": 1000,
    "outfilePrefix": "/disk2/contextualBanditSimsNoEffect/win20reg_zhihan/C5_G50_Crossover_L2_IL1/CompareBanditActionsOut_TYPE_NNUMSTUDENTS_TNUMTRIALS",
    "rewardFile": "/disk2/contextualBanditSimsNoEffect/win20reg_zhihan/C5_G50_Crossover_L2_IL1/CompareBanditRewardFile_NNUMSTUDENTS_TNUMTRIALS"
}