{
  "numTrials": 1000,
  "numStudents": 1000,
  "contextualStructure": [
    2,
    2,
    2
  ],
  "contextualGenerationProcess": {
    "0": [
      0.4,
      0.6
    ]
  },
  "conditions": [
    [
      [
        -0.4054651081081643,
        0,
        0.8109302162163285,
        0,
        0,
        0,
        0
      ],
      [
        0.4054651081081642,
        0,
        -0.8109302162163285,
        0,
        0,
        0,
        0
      ]
    ]
  ],
  "randConditions": {},
  "fileName": "C3_G40_Personalized.json",
  "rewardFile": "/disk2/contextualBanditSimsNoEffect/edm_rev/C3_G40_Personalized/CompareBanditRewardFile_NNUMSTUDENTS_TNUMTRIALS",
  "outfilePrefix": "/disk2/contextualBanditSimsNoEffect/edm_rev/C3_G40_Personalized/CompareBanditActionsOut_TYPE_NNUMSTUDENTS_TNUMTRIALS",
  "conditionsToActionsFile": "/disk2/contextualBanditSimsNoEffect/edm_rev/C3_G40_Personalized/CompareBanditConditionsToActions_NNUMSTUDENTS_TNUMTRIALS"
}