{
  "numTrials": 1000,
  "numStudents": 1000,
  "contextualStructure": [
    2,
    2,
    2
  ],
  "contextualGenerationProcess": {
    "0": [
      0.1,
      0.9
    ]
  },
  "conditions": [
    [
      [
        -0.4054651081081643,
        0,
        1.791759469228055,
        0,
        0,
        0,
        0
      ],
      [
        0.4054651081081642,
        0,
        1.7917594692280554,
        0,
        0,
        0,
        0
      ]
    ]
  ],
  "randConditions": {},
  "fileName": "C3_G10_Universal4.json",
  "rewardFile": "/disk2/contextualBanditSimsNoEffect/edm_rev/C3_G10_Universal4/CompareBanditRewardFile_NNUMSTUDENTS_TNUMTRIALS",
  "outfilePrefix": "/disk2/contextualBanditSimsNoEffect/edm_rev/C3_G10_Universal4/CompareBanditActionsOut_TYPE_NNUMSTUDENTS_TNUMTRIALS",
  "conditionsToActionsFile": "/disk2/contextualBanditSimsNoEffect/edm_rev/C3_G10_Universal4/CompareBanditConditionsToActions_NNUMSTUDENTS_TNUMTRIALS"
}