{
  "numTrials": 1000,
  "numStudents": 1000,
  "contextualStructure": [
    2,
    2,
    2,
    2,
    2,
    2,
    2,
    2
  ],
  "contextualGenerationProcess": {
    "0": [
      0.3,
      0.7
    ]
  },
  "conditions": [
    [
      [
        -0.4054651081081643,
        0,
        0.0,
        0,
        0,
        0,
        0,
        0,
        0,
        0,
        0,
        0,
        0,
        0,
        0,
        0,
        0
      ],
      [
        0.4054651081081642,
        0,
        0.0,
        0,
        0,
        0,
        0,
        0,
        0,
        0,
        0,
        0,
        0,
        0,
        0,
        0,
        0
      ]
    ]
  ],
  "randConditions": {},
  "fileName": "C8_G30_Baseline.json",
  "rewardFile": "/disk2/contextualBanditSimsNoEffect/edm_rev/C8_G30_Baseline/CompareBanditRewardFile_NNUMSTUDENTS_TNUMTRIALS",
  "outfilePrefix": "/disk2/contextualBanditSimsNoEffect/edm_rev/C8_G30_Baseline/CompareBanditActionsOut_TYPE_NNUMSTUDENTS_TNUMTRIALS",
  "conditionsToActionsFile": "/disk2/contextualBanditSimsNoEffect/edm_rev/C8_G30_Baseline/CompareBanditConditionsToActions_NNUMSTUDENTS_TNUMTRIALS"
}