{
  "numTrials": 1000,
  "numStudents": 1000,
  "contextualStructure": [
    2,
    2,
    2,
    2,
    2,
    2,
    2,
    2
  ],
  "contextualGenerationProcess": {
    "0": [
      0.1,
      0.9
    ]
  },
  "conditions": [
    [
      [
        -0.4054651081081643,
        0,
        0.4054651081081643,
        0,
        0,
        0,
        0,
        0,
        0,
        0,
        0,
        0,
        0,
        0,
        0,
        0,
        0
      ],
      [
        0.4054651081081642,
        0,
        0.44183275227903923,
        0,
        0,
        0,
        0,
        0,
        0,
        0,
        0,
        0,
        0,
        0,
        0,
        0,
        0
      ]
    ]
  ],
  "randConditions": {},
  "fileName": "C8_G10_Universal3.json",
  "rewardFile": "/disk2/contextualBanditSimsNoEffect/edm_rev/C8_G10_Universal3/CompareBanditRewardFile_NNUMSTUDENTS_TNUMTRIALS",
  "outfilePrefix": "/disk2/contextualBanditSimsNoEffect/edm_rev/C8_G10_Universal3/CompareBanditActionsOut_TYPE_NNUMSTUDENTS_TNUMTRIALS",
  "conditionsToActionsFile": "/disk2/contextualBanditSimsNoEffect/edm_rev/C8_G10_Universal3/CompareBanditConditionsToActions_NNUMSTUDENTS_TNUMTRIALS"
}