{
    "conditions": [
        [
            [
                -0.4054651081081643,
                0,
                0.8109302162163285,
                0,
                0,
                0,
                0,
                0,
                0,
                0,
                0,
                0,
                0,
                0,
                0,
                0,
                0,
                0,
                0,
                0,
                0
            ],
            [
                0.4054651081081642,
                0,
                -0.8109302162163285,
                0,
                0,
                0,
                0,
                0,
                0,
                0,
                0,
                0,
                0,
                0,
                0,
                0,
                0,
                0,
                0,
                0,
                0
            ]
        ]
    ],
    "conditionsToActionsFile": "/disk2/contextualBanditSimsNoEffect/PyramidalC2/C10_G50_Crossover_L50/CompareBanditConditionsToActions_NNUMSTUDENTS_TNUMTRIALS",
    "contextualGenerationProcess": {
        "0": [
            0.5,
            0.5
        ]
    },
    "contextualStructure": [
        2,
        2,
        2,
        2,
        2,
        2,
        2,
        2,
        2,
        2
    ],
    "dow_scheduler_name": "pyramidal",
    "fileName": "C10_G50_Crossover_L50.json",
    "lambda": 50,
    "numStudents": 1000,
    "numTrials": 1000,
    "online": 0,
    "outfilePrefix": "/disk2/contextualBanditSimsNoEffect/PyramidalC2/C10_G50_Crossover_L50/CompareBanditActionsOut_TYPE_NNUMSTUDENTS_TNUMTRIALS",
    "rewardFile": "/disk2/contextualBanditSimsNoEffect/PyramidalC2/C10_G50_Crossover_L50/CompareBanditRewardFile_NNUMSTUDENTS_TNUMTRIALS"
}