{
    "conditions": [
        [
            [
                -0.4054651081081643,
                0,
                0.0,
                0,
                0
            ],
            [
                0.4054651081081642,
                0,
                0.0,
                0,
                0
            ]
        ]
    ],
    "conditionsToActionsFile": "/disk2/contextualBanditSimsNoEffect/PyramidalC2/C2_G50_None_L1/CompareBanditConditionsToActions_NNUMSTUDENTS_TNUMTRIALS",
    "contextualGenerationProcess": {
        "0": [
            0.5,
            0.5
        ]
    },
    "contextualStructure": [
        2,
        2
    ],
    "dow_scheduler_name": "pyramidal",
    "fileName": "C2_G50_None_L1.json",
    "lambda": 1,
    "numStudents": 1000,
    "numTrials": 1000,
    "online": 0,
    "outfilePrefix": "/disk2/contextualBanditSimsNoEffect/PyramidalC2/C2_G50_None_L1/CompareBanditActionsOut_TYPE_NNUMSTUDENTS_TNUMTRIALS",
    "rewardFile": "/disk2/contextualBanditSimsNoEffect/PyramidalC2/C2_G50_None_L1/CompareBanditRewardFile_NNUMSTUDENTS_TNUMTRIALS"
}