{
    "simType": "parameters",
    "numTrials": 1000,
    "numStudents": 928,
    "rewardFile": "/disk2/contextualBanditSimsNoEffect/ExperimentData/complete/Parameters/lambda_1000_pyramidal/ASSISTments_303899_C1_N1k/CompareBanditRewardFile_NNUMSTUDENTS_TNUMTRIALS",
    "outfilePrefix": "/disk2/contextualBanditSimsNoEffect/ExperimentData/complete/Parameters/lambda_1000_pyramidal/ASSISTments_303899_C1_N1k/CompareBanditActionsOut_TYPE_NNUMSTUDENTS_TNUMTRIALS",
    "conditionsToActionsFile": "/disk2/contextualBanditSimsNoEffect/ExperimentData/complete/Parameters/lambda_1000_pyramidal/ASSISTments_303899_C1_N1k/CompareBanditConditionsToActions_NNUMSTUDENTS",
    "source": "/disk2/contextualBanditSimsNoEffect/ExperimentData/ASSISTmentsData.csv",
    "rewardScheme": "complete",
    "experimentId": 303899,
    "contextHeaders": [
        "Prior Percent Correct"
    ],
    "qcutBehavior": {
        "Prior Percent Correct": 4
    },
    "lambda": 1000,
    "lambdaString": "1000",
    "online": 0,
    "dow_scheduler_name": "pyramidal"
}