{
  "numTrials": 1000,
  "numStudents": 1000,
  "structures": {"C1": [2], "C2": [2, 2]},
  "generationProcesses": {"G20": {"0":  [0.2, 0.8]}, "G50": {"0":  [0.5, 0.5]}},
  "interceptProbs": {"Large": [[0.4, 0.6]]},
  "coefficientProbs": {"Interaction": {"0": [[0.4, 0.8]]}},
  "filePathPrefix": "/disk2/contextualBanditSimsNoEffect/PosterDataFA19/",
  "fileNameTemplate": "${structure}_${generationProcess}_${coefficientProb}",
  "rewardFileExt": "/CompareBanditRewardFile_NNUMSTUDENTS_TNUMTRIALS",
  "outfilePrefixExt": "/CompareBanditActionsOut_TYPE_NNUMSTUDENTS_TNUMTRIALS",
  "conditionsToActionsFileExt": "/CompareBanditConditionsToActions_NNUMSTUDENTS_TNUMTRIALS",

  "outputFolder": "PosterConfigs/"
}