{
    "simType": "parameters",
    "numTrials": 1000,
    "numStudents": 627,
    "rewardFile": "/disk2/contextualBanditSimsNoEffect/ExperimentData/ProblemCount/Parameters/lambda_1000000/ASSISTments_241622_C1_N1k/CompareBanditRewardFile_NNUMSTUDENTS_TNUMTRIALS",
    "outfilePrefix": "/disk2/contextualBanditSimsNoEffect/ExperimentData/ProblemCount/Parameters/lambda_1000000/ASSISTments_241622_C1_N1k/CompareBanditActionsOut_TYPE_NNUMSTUDENTS_TNUMTRIALS",
    "conditionsToActionsFile": "/disk2/contextualBanditSimsNoEffect/ExperimentData/ProblemCount/Parameters/lambda_1000000/ASSISTments_241622_C1_N1k/CompareBanditConditionsToActions_NNUMSTUDENTS",
    "source": "/disk2/contextualBanditSimsNoEffect/ExperimentData/ASSISTmentsData.csv",
    "rewardScheme": "ProblemCount",
    "experimentId": 241622,
    "contextHeaders": [
        "Prior Percent Correct"
    ],
    "qcutBehavior": {
        "Prior Percent Correct": 4
    },
    "lambda": 1000000,
    "lambdaString": "1000000"
}