{
  "numTrials": 1000,
  "numStudents": 1000,
  "structures": {"C1": [2], "C2": [2, 2], "C3": [2,2,2], "C5": [2,2,2,2,2], "C7": [2,2,2,2,2,2,2], "C8":  [2,2,2,2,2,2,2,2], "C10":  [2,2,2,2,2,2,2,2,2,2]},
  "generationProcesses": {"G10": {"0": [0.1, 0.9]}, "G20": {"0":  [0.2, 0.8]}, "G30":  {"0":  [0.3, 0.7]},"G40": {"0": [0.4, 0.6]}, "G50": {"0":  [0.5, 0.5]}},
  "interceptProbs": {"Large": [[0.4, 0.6]]},
  "coefficientProbs": {"Baseline": {"0": [[0.4, 0.6]]}, "Personalized": {"0": [[0.6, 0.4]]}, "Universal1": {"0": [[0.6, 0.8]]}, "Universal2": {"0": [[0.4, 0.8]]}, "Universal3": {"0": [[0.5, 0.7]]}, "Universal4": {"0": [[0.8, 0.9]]}},
  "filePathPrefix": "/disk2/contextualBanditSimsNoEffect/edm_rev/",
  "fileNameTemplate": "${structure}_${generationProcess}_${coefficientProb}",
  "rewardFileExt": "/CompareBanditRewardFile_NNUMSTUDENTS_TNUMTRIALS",
  "outfilePrefixExt": "/CompareBanditActionsOut_TYPE_NNUMSTUDENTS_TNUMTRIALS",
  "conditionsToActionsFileExt": "/CompareBanditConditionsToActions_NNUMSTUDENTS_TNUMTRIALS",
  "outputFolder": "EdmRevConfigs/"
}