{
    "simType": "outcomes",
    "numStudents": 306,
    "numTrials": 1000,
    "rewardFile": "/disk2/contextualBanditSimsNoEffect/ExperimentData/complete/Outcomes/lambda_1000_pyramidal/ASSISTments_377658_C1_N1k/CompareBanditRewardFile_NNUMSTUDENTS_TNUMTRIALS",
    "outfilePrefix": "/disk2/contextualBanditSimsNoEffect/ExperimentData/complete/Outcomes/lambda_1000_pyramidal/ASSISTments_377658_C1_N1k/CompareBanditActionsOut_TYPE_NNUMSTUDENTS_TNUMTRIALS",
    "conditionsToActionsFile": "/disk2/contextualBanditSimsNoEffect/ExperimentData/complete/Outcomes/lambda_1000_pyramidal/ASSISTments_377658_C1_N1k/CompareBanditConditionsToActions_NNUMSTUDENTS",
    "source": "/disk2/contextualBanditSimsNoEffect/ExperimentData/ASSISTmentsData.csv",
    "rewardScheme": "complete",
    "experimentId": 377658,
    "contextHeaders": [
        "Prior Percent Correct"
    ],
    "qcutBehavior": {
        "Prior Percent Correct": 4
    },
    "replacement": true,
    "lambda": 1000,
    "lambdaString": "1000",
    "online": 0,
    "dow_scheduler_name": "pyramidal"
}