{
  "simType": "parameters",
  "numTrials": 1000,
  "numStudents": 1000,
  "rewardFile": "/disk2/contextualBanditSimsNoEffect/edm_rev_assist/complete/Parameters/ASSISTments_293151_C1_N1k/CompareBanditRewardFile_NNUMSTUDENTS_TNUMTRIALS",
  "outfilePrefix": "/disk2/contextualBanditSimsNoEffect/edm_rev_assist/complete/Parameters/ASSISTments_293151_C1_N1k/CompareBanditActionsOut_TYPE_NNUMSTUDENTS_TNUMTRIALS",
  "conditionsToActionsFile": "/disk2/contextualBanditSimsNoEffect/edm_rev_assist/complete/Parameters/ASSISTments_293151_C1_N1k/CompareBanditConditionsToActions_NNUMSTUDENTS",
  "source": "/disk2/contextualBanditSimsNoEffect/edm_rev_assist/ASSISTmentsData.csv",
  "rewardScheme": "complete",
  "experimentId": 293151,
  "contextHeaders": [
    "Prior Percent Correct"
  ],
  "qcutBehavior": {
    "Prior Percent Correct": 4
  }
}