{
    "simType": "outcomes",
    "numStudents": 198,
    "numTrials": 1000,
    "rewardFile": "/disk2/contextualBanditSimsNoEffect/ExperimentData/complete/Outcomes/ASSISTments_226210_C1_N1k/CompareBanditRewardFile_NNUMSTUDENTS_TNUMTRIALS",
    "outfilePrefix": "/disk2/contextualBanditSimsNoEffect/ExperimentData/complete/Outcomes/ASSISTments_226210_C1_N1k/CompareBanditActionsOut_TYPE_NNUMSTUDENTS_TNUMTRIALS",
    "conditionsToActionsFile": "/disk2/contextualBanditSimsNoEffect/ExperimentData/complete/Outcomes/ASSISTments_226210_C1_N1k/CompareBanditConditionsToActions_NNUMSTUDENTS",
    "source": "/disk2/contextualBanditSimsNoEffect/ExperimentData/ASSISTmentsData.csv",
    "rewardScheme": "complete",
    "experimentId": 250476,
    "contextHeaders": [
        "Prior Percent Correct"
    ],
    "qcutBehavior": {
        "Prior Percent Correct": 4
    },
    "replacement": true
}