{
    "simType": "outcomes",
    "numStudents": 692,
    "numTrials": 1000,
    "rewardFile": "/disk2/contextualBanditSimsNoEffect/ExperimentData/ProblemCount/Outcomes/lambda_1000/ASSISTments_237447_C1_N1k/CompareBanditRewardFile_NNUMSTUDENTS_TNUMTRIALS",
    "outfilePrefix": "/disk2/contextualBanditSimsNoEffect/ExperimentData/ProblemCount/Outcomes/lambda_1000/ASSISTments_237447_C1_N1k/CompareBanditActionsOut_TYPE_NNUMSTUDENTS_TNUMTRIALS",
    "conditionsToActionsFile": "/disk2/contextualBanditSimsNoEffect/ExperimentData/ProblemCount/Outcomes/lambda_1000/ASSISTments_237447_C1_N1k/CompareBanditConditionsToActions_NNUMSTUDENTS",
    "source": "/disk2/contextualBanditSimsNoEffect/ExperimentData/ASSISTmentsData.csv",
    "rewardScheme": "ProblemCount",
    "experimentId": 237447,
    "contextHeaders": [
        "Prior Percent Correct"
    ],
    "qcutBehavior": {
        "Prior Percent Correct": 4
    },
    "replacement": true,
    "lambda": 1000,
    "lambdaString": "1000"
}