samplingType,rewardType,effectSize,sampleSize,totalSims,propSig
uniform,binary,.1,.5,500,.532
uniform,binary,.1,1,500,.804
uniform,binary,.1,2,500,.974
uniform,binary,.1,4,500,1.0
uniform,binary,.3,.5,500,.522
uniform,binary,.3,1,500,.81
uniform,binary,.3,2,500,.98
uniform,binary,.3,4,500,1.0
uniform,binary,.5,.5,500,.59
uniform,binary,.5,1,500,.81
uniform,binary,.5,2,500,.99
uniform,binary,.5,4,500,1.0
bandit,binary,.1,.5,500,.364
bandit,binary,.1,1,500,.526
bandit,binary,.1,2,500,.774
bandit,binary,.1,4,500,.916
bandit,binary,.3,.5,500,.328
bandit,binary,.3,1,500,.586
bandit,binary,.3,2,500,.79
bandit,binary,.3,4,500,.91
bandit,binary,.5,.5,500,.342
bandit,binary,.5,1,500,.614
bandit,binary,.5,2,500,.824
bandit,binary,.5,4,500,.938
uniform,normal,.2,.5,500,.492
uniform,normal,.2,1,500,.792
uniform,normal,.2,2,500,.984
uniform,normal,.2,4,500,1.0
uniform,normal,.5,.5,500,.48
uniform,normal,.5,1,500,.784
uniform,normal,.5,2,500,.984
uniform,normal,.5,4,500,1.0
uniform,normal,.8,.5,500,.494
uniform,normal,.8,1,500,.838
uniform,normal,.8,2,500,.984
uniform,normal,.8,4,500,1.0
bandit,normal,.2,.5,500,.338
bandit,normal,.2,1,500,.524
bandit,normal,.2,2,500,.714
bandit,normal,.2,4,500,.854
bandit,normal,.5,.5,500,0.3
bandit,normal,.5,1,500,0.46
bandit,normal,.5,2,500,0.67
bandit,normal,.5,4,500,0.808
bandit,normal,.8,.5,500,0.342
bandit,normal,.8,1,500,0.48
bandit,normal,.8,2,500,0.686
bandit,normal,.8,4,500,0.76
