{
    "simType": "parameters",
    "numStudents": 1000,
    "numTrials": 1000,
    "rewardFile": "/disk2/contextualBanditSimsNoEffect/ExperimentData/complete/Parameters/lambda_1000/ASSISTments_241622_C1_N1k/CompareBanditRewardFile_NNUMSTUDENTS_TNUMTRIALSlambda1000",
    "outfilePrefix": "/disk2/contextualBanditSimsNoEffect/ExperimentData/complete/Parameters/lambda_1000/ASSISTments_241622_C1_N1k/CompareBanditActionsOut_TYPE_NNUMSTUDENTS_TNUMTRIALSlambda1000",
    "conditionsToActionsFile": "/disk2/contextualBanditSimsNoEffect/ExperimentData/complete/Parameters/lambda_1000/ASSISTments_241622_C1_N1k/CompareBanditConditionsToActions_NNUMSTUDENTSlambda1000",
    "source": "/disk2/contextualBanditSimsNoEffect/ExperimentData/ASSISTmentsData.csv",
    "rewardScheme": "complete",
    "experimentId": 241622,
    "contextHeaders": [
        "Prior Percent Correct"
    ],
    "qcutBehavior": {
        "Prior Percent Correct": 4
    },
    "replacement": true
}